201201-5
Fadli
Kartu ATM
2 : [Jumlah Barang]
14000
1
12
2020
1
52
8 : [Nomor Antrian Terakhir]=====[Batas Index]=====
201201-6
Fikri
Cash
1 : [Jumlah Barang]
30000
1
12
2020
1
56
8 : [Nomor Antrian Terakhir]=====[Batas Index]=====
201201-7
Super Dede
Cash
1 : [Jumlah Barang]
9000
1
12
2020
1
59
8 : [Nomor Antrian Terakhir]=====[Batas Index]=====
