201201-1
Dede Rizki
2 : [Jumlah Barang]
20000
1
12
2020
0
36
0 : Keadaan Reset=====[Batas Index]=====
201201-2
Rizki A
1 : [Jumlah Barang]
12000
1
12
2020
0
41
0 : Keadaan Reset=====[Batas Index]=====
201201-3
Aldo
3 : [Jumlah Barang]
37000
1
12
2020
1
18
0 : Keadaan Reset=====[Batas Index]=====
